{
    "name" : "Middleby Careers Child",
    "version" : "1.1.4",
    "requires" : "3.2",
    "tested" : "5.9",
    "upgrade_notice" : "Here's why you should upgrade...",
    "author" : "WiserSites",
	"author_homepage" : "https://wisersites.com/",
    "download_url" : "https://bitbucket.org/wisersites/wiser-careers-child-updates/downloads/middleby-careers-child_v1.1.4.zip",
    "sections" : {
        "description" : "Middleby Careers Child is the most complete Careers plugin for WordPress."
    }
}